^F:\SGD2011Z-EX\SRV\CLIENT\DEBUG\CLIENT.EXE.INTERMEDIATE.MANIFEST
C:\WINDOWS\WINDOWSSHELL.MANIFEST
F:\SGD2011Z-EX\SRV\CLIENT\DEBUG\CLIENT.EXE.EMBED.MANIFEST
^C:\DOCUMENTS AND SETTINGS\SZYMON\PULPIT\SRV\CLIENT\DEBUG\CLIENT.EXE.INTERMEDIATE.MANIFEST
C:\WINDOWS\WINDOWSSHELL.MANIFEST
C:\DOCUMENTS AND SETTINGS\SZYMON\PULPIT\SRV\CLIENT\DEBUG\CLIENT.EXE.EMBED.MANIFEST
