^F:\SGD2011Z-EX\SRV\SRV\DEBUG\SRV_MANIFEST.RC
F:\SGD2011Z-EX\SRV\SRV\DEBUG\SRV.EXE.EMBED.MANIFEST
^C:\DOCUMENTS AND SETTINGS\SZYMON\PULPIT\SRV\SRV\DEBUG\SRV_MANIFEST.RC
C:\DOCUMENTS AND SETTINGS\SZYMON\PULPIT\SRV\SRV\DEBUG\SRV.EXE.EMBED.MANIFEST
